operator,input_size,s_percent,sample_rate,total_time,total_cnt,average_time
dgc,32,0.01,0.001,0.0007526874542236328,10,7.526874542236328e-05
dgcr,32,0.01,0.001,0.0006163120269775391,10,6.16312026977539e-05
dgc,64,0.01,0.001,0.0004634857177734375,10,4.634857177734375e-05
dgcr,64,0.01,0.001,0.0005178451538085938,10,5.178451538085937e-05
dgc,128,0.01,0.001,0.0005586147308349609,10,5.5861473083496096e-05
dgcr,128,0.01,0.001,0.0005614757537841797,10,5.614757537841797e-05
dgc,256,0.01,0.001,0.0006060600280761719,10,6.0606002807617185e-05
dgcr,256,0.01,0.001,0.0005476474761962891,10,5.4764747619628904e-05
dgc,512,0.01,0.001,0.0004982948303222656,10,4.982948303222656e-05
dgcr,512,0.01,0.001,0.00055694580078125,10,5.5694580078125e-05
dgc,1024,0.01,0.001,0.0005095005035400391,10,5.0950050354003904e-05
dgcr,1024,0.01,0.001,0.000682830810546875,10,6.82830810546875e-05
dgc,2048,0.01,0.001,0.0004985332489013672,10,4.985332489013672e-05
dgcr,2048,0.01,0.001,0.0006725788116455078,10,6.725788116455079e-05
dgc,4096,0.01,0.001,0.0005297660827636719,10,5.2976608276367185e-05
dgcr,4096,0.01,0.001,0.0006031990051269531,10,6.031990051269531e-05
dgc,8192,0.01,0.001,0.0005638599395751953,10,5.638599395751953e-05
dgcr,8192,0.01,0.001,0.0005362033843994141,10,5.362033843994141e-05
dgc,16384,0.01,0.001,0.0005478858947753906,10,5.4788589477539065e-05
dgcr,16384,0.01,0.001,0.0005462169647216797,10,5.462169647216797e-05
dgc,32768,0.01,0.001,0.0005397796630859375,10,5.397796630859375e-05
dgcr,32768,0.01,0.001,0.0005557537078857422,10,5.557537078857422e-05
dgc,65536,0.01,0.001,0.0005412101745605469,10,5.412101745605469e-05
dgcr,65536,0.01,0.001,0.00052642822265625,10,5.2642822265625e-05
dgc,131072,0.01,0.001,0.0005786418914794922,10,5.7864189147949216e-05
dgcr,131072,0.01,0.001,0.00057220458984375,10,5.7220458984375e-05
dgc,262144,0.01,0.001,0.0005862712860107422,10,5.862712860107422e-05
dgcr,262144,0.01,0.001,0.0005636215209960938,10,5.6362152099609376e-05
dgc,524288,0.01,0.001,0.0006279945373535156,10,6.279945373535156e-05
dgcr,524288,0.01,0.001,0.0005950927734375,10,5.950927734375e-05
dgc,1048576,0.01,0.001,0.0016930103302001953,10,0.00016930103302001954
dgcr,1048576,0.01,0.001,0.0010175704956054688,10,0.00010175704956054688
dgc,2097152,0.01,0.001,0.0016193389892578125,10,0.00016193389892578126
dgcr,2097152,0.01,0.001,0.001283407211303711,10,0.00012834072113037108
dgc,4194304,0.01,0.001,0.003393411636352539,10,0.0003393411636352539
dgcr,4194304,0.01,0.001,0.001636505126953125,10,0.0001636505126953125
dgc,8388608,0.01,0.001,0.016277790069580078,10,0.0016277790069580077
dgcr,8388608,0.01,0.001,0.0019087791442871094,10,0.00019087791442871094
dgc,16777216,0.01,0.001,0.033080101013183594,10,0.003308010101318359
dgcr,16777216,0.01,0.001,0.0021996498107910156,10,0.00021996498107910157
dgc,33554432,0.01,0.001,0.06036496162414551,10,0.006036496162414551
dgcr,33554432,0.01,0.001,0.0021750926971435547,10,0.00021750926971435546
dgc,67108864,0.01,0.001,0.13023710250854492,10,0.013023710250854493
dgcr,67108864,0.01,0.001,0.0025577545166015625,10,0.00025577545166015624
dgc,134217728,0.01,0.001,0.34542202949523926,10,0.034542202949523926
dgcr,134217728,0.01,0.001,0.004551410675048828,10,0.0004551410675048828
