operator,size,bitwidth,random,total_time,total_cnt,average_time
terngrad,32,2,0,0.0006339550018310547,10,6.339550018310546e-05
terngrad_reverse,32,2,0,0.0005729198455810547,10,5.729198455810547e-05
terngrad,32,2,1,0.0005233287811279297,10,5.233287811279297e-05
terngrad_reverse,32,2,1,0.0005047321319580078,10,5.047321319580078e-05
terngrad,64,2,0,0.0005135536193847656,10,5.1355361938476564e-05
terngrad_reverse,64,2,0,0.0005176067352294922,10,5.176067352294922e-05
terngrad,64,2,1,0.0005278587341308594,10,5.278587341308594e-05
terngrad_reverse,64,2,1,0.0005097389221191406,10,5.0973892211914065e-05
terngrad,128,2,0,0.0005335807800292969,10,5.335807800292969e-05
terngrad_reverse,128,2,0,0.0005431175231933594,10,5.431175231933594e-05
terngrad,128,2,1,0.0005331039428710938,10,5.3310394287109374e-05
terngrad_reverse,128,2,1,0.0005059242248535156,10,5.059242248535156e-05
terngrad,256,2,0,0.0005705356597900391,10,5.705356597900391e-05
terngrad_reverse,256,2,0,0.0005033016204833984,10,5.033016204833984e-05
terngrad,256,2,1,0.0005967617034912109,10,5.9676170349121096e-05
terngrad_reverse,256,2,1,0.0005037784576416016,10,5.037784576416016e-05
terngrad,512,2,0,0.0005922317504882812,10,5.9223175048828126e-05
terngrad_reverse,512,2,0,0.0005195140838623047,10,5.195140838623047e-05
terngrad,512,2,1,0.0006396770477294922,10,6.396770477294922e-05
terngrad_reverse,512,2,1,0.0005371570587158203,10,5.3715705871582034e-05
terngrad,1024,2,0,0.0007319450378417969,10,7.319450378417969e-05
terngrad_reverse,1024,2,0,0.0005345344543457031,10,5.345344543457031e-05
terngrad,1024,2,1,0.0007388591766357422,10,7.388591766357421e-05
terngrad_reverse,1024,2,1,0.0005245208740234375,10,5.245208740234375e-05
terngrad,2048,2,0,0.0008997917175292969,10,8.997917175292968e-05
terngrad_reverse,2048,2,0,0.0005691051483154297,10,5.6910514831542966e-05
terngrad,2048,2,1,0.009629487991333008,10,0.0009629487991333008
terngrad_reverse,2048,2,1,0.0006053447723388672,10,6.053447723388672e-05
terngrad,4096,2,0,0.0013885498046875,10,0.00013885498046875
terngrad_reverse,4096,2,0,0.00069427490234375,10,6.9427490234375e-05
terngrad,4096,2,1,0.0014317035675048828,10,0.00014317035675048828
terngrad_reverse,4096,2,1,0.0006554126739501953,10,6.554126739501953e-05
terngrad,8192,2,0,0.002169370651245117,10,0.0002169370651245117
terngrad_reverse,8192,2,0,0.0009229183197021484,10,9.229183197021485e-05
terngrad,8192,2,1,0.0024514198303222656,10,0.0002451419830322266
terngrad_reverse,8192,2,1,0.0008981227874755859,10,8.981227874755859e-05
terngrad,16384,2,0,0.003880023956298828,10,0.00038800239562988283
terngrad_reverse,16384,2,0,0.0013189315795898438,10,0.00013189315795898439
terngrad,16384,2,1,0.004568815231323242,10,0.0004568815231323242
terngrad_reverse,16384,2,1,0.0013778209686279297,10,0.00013778209686279296
terngrad,32768,2,0,0.007180452346801758,10,0.0007180452346801757
terngrad_reverse,32768,2,0,0.0021393299102783203,10,0.00021393299102783202
terngrad,32768,2,1,0.008037328720092773,10,0.0008037328720092773
terngrad_reverse,32768,2,1,0.002080678939819336,10,0.0002080678939819336
terngrad,65536,2,0,0.012597322463989258,10,0.0012597322463989257
terngrad_reverse,65536,2,0,0.0024471282958984375,10,0.00024471282958984377
terngrad,65536,2,1,0.012444734573364258,10,0.0012444734573364257
terngrad_reverse,65536,2,1,0.0024137496948242188,10,0.00024137496948242187
terngrad,131072,2,0,0.01752614974975586,10,0.001752614974975586
terngrad_reverse,131072,2,0,0.0035886764526367188,10,0.0003588676452636719
terngrad,131072,2,1,0.019245147705078125,10,0.0019245147705078125
terngrad_reverse,131072,2,1,0.0033681392669677734,10,0.00033681392669677735
terngrad,262144,2,0,0.0513157844543457,10,0.005131578445434571
terngrad_reverse,262144,2,0,0.008174896240234375,10,0.0008174896240234375
terngrad,262144,2,1,0.03843235969543457,10,0.003843235969543457
terngrad_reverse,262144,2,1,0.0060882568359375,10,0.00060882568359375
terngrad,524288,2,0,0.07968664169311523,10,0.007968664169311523
terngrad_reverse,524288,2,0,0.013963937759399414,10,0.0013963937759399413
terngrad,524288,2,1,0.09361839294433594,10,0.009361839294433594
terngrad_reverse,524288,2,1,0.013704299926757812,10,0.0013704299926757812
terngrad,1048576,2,0,0.13887476921081543,10,0.013887476921081544
terngrad_reverse,1048576,2,0,0.024016380310058594,10,0.0024016380310058595
terngrad,1048576,2,1,0.17075872421264648,10,0.017075872421264647
terngrad_reverse,1048576,2,1,0.03125190734863281,10,0.0031251907348632812
terngrad,2097152,2,0,0.2597472667694092,10,0.025974726676940917
terngrad_reverse,2097152,2,0,0.044464826583862305,10,0.004446482658386231
terngrad,2097152,2,1,0.31072378158569336,10,0.031072378158569336
terngrad_reverse,2097152,2,1,0.044533729553222656,10,0.0044533729553222655
terngrad,4194304,2,0,0.5173799991607666,10,0.05173799991607666
terngrad_reverse,4194304,2,0,0.09476876258850098,10,0.009476876258850098
terngrad,4194304,2,1,0.6171138286590576,10,0.06171138286590576
terngrad_reverse,4194304,2,1,0.10822820663452148,10,0.010822820663452148
terngrad,8388608,2,0,0.8721508979797363,10,0.08721508979797363
terngrad_reverse,8388608,2,0,0.24194598197937012,10,0.02419459819793701
terngrad,8388608,2,1,1.0813572406768799,10,0.10813572406768798
terngrad_reverse,8388608,2,1,0.22174525260925293,10,0.022174525260925292
terngrad,16777216,2,0,1.4491853713989258,10,0.14491853713989258
terngrad_reverse,16777216,2,0,0.46125125885009766,10,0.04612512588500976
terngrad,16777216,2,1,1.8078742027282715,10,0.18078742027282715
terngrad_reverse,16777216,2,1,0.45326900482177734,10,0.04532690048217773
terngrad,33554432,2,0,2.8528521060943604,10,0.285285210609436
terngrad_reverse,33554432,2,0,0.8245913982391357,10,0.08245913982391358
terngrad,33554432,2,1,3.4851937294006348,10,0.34851937294006347
terngrad_reverse,33554432,2,1,0.8804011344909668,10,0.08804011344909668
terngrad,67108864,2,0,5.58206844329834,10,0.558206844329834
terngrad_reverse,67108864,2,0,1.7782628536224365,10,0.17782628536224365
terngrad,67108864,2,1,6.707362174987793,10,0.6707362174987793
terngrad_reverse,67108864,2,1,1.7326478958129883,10,0.17326478958129882
terngrad,134217728,2,0,11.023800373077393,10,1.1023800373077393
terngrad_reverse,134217728,2,0,3.750366449356079,10,0.3750366449356079
terngrad,134217728,2,1,13.43175196647644,10,1.343175196647644
terngrad_reverse,134217728,2,1,3.8089303970336914,10,0.38089303970336913
